<error>
<domain>OTHER</domain>
<lang>JavaScript</lang>
<checker>DEADCODE</checker>
<type>deadcode</type>
<subtype>logical_contradiction</subtype>
<file>/Users/jcroall/git/github/express-cart-demo/routes/admin.js</file>
<function>!admin.js!%IPFE%5</function>
<functionMergeName>!admin.js!%IPFE</functionMergeName>
<score>100</score>
<ordered>false</ordered>
<event>
<tag>truth</tag>
<description>{CovLStrv2{{t{At condition {0}, the truth value of {1} must be false.}{{code{userCount &amp;&amp; (userCount === 0)}}}{{code{userCount &amp;&amp; (userCount === 0)}}}}}}</description>
<line>115</line>
</event>
<event>
<tag>possible_types</tag>
<description>{CovLStrv2{{t{At condition {0}, the type of {1} cannot be {2}.}{{code{userCount &amp;&amp; (userCount === 0)}}}{{code{userCount &amp;&amp; (userCount === 0)}}}{any object}}}}</description>
<line>115</line>
</event>
<event>
<tag>dead_error_condition</tag>
<description>{CovLStrv2{{t{The condition {0} cannot be true.}{{code{userCount &amp;&amp; (userCount === 0)}}}}}}</description>
<line>115</line>
</event>
<event>
<main>true</main>
<tag>dead_error_line</tag>
<description>{CovLStrv2{{t{Execution cannot reach this statement: {0}.}{{code{try {L}
  await db.users.inse...}}}}}}</description>
<line>117</line>
</event>
<extra>userCount</extra>
<subcategory>none</subcategory>
</error>
<error>
<domain>OTHER</domain>
<lang>JavaScript</lang>
<checker>DEADCODE</checker>
<type>deadcode</type>
<subtype>logical_contradiction</subtype>
<file>/Users/jcroall/git/github/express-cart-demo/routes/admin.js</file>
<function>!admin.js!%IPFE%4</function>
<functionMergeName>!admin.js!%IPFE</functionMergeName>
<score>100</score>
<ordered>false</ordered>
<event>
<tag>truth</tag>
<description>{CovLStrv2{{t{At condition {0}, the truth value of {1} must be false.}{{code{userCount &amp;&amp; (userCount === 0)}}}{{code{userCount &amp;&amp; (userCount === 0)}}}}}}</description>
<line>87</line>
</event>
<event>
<tag>possible_types</tag>
<description>{CovLStrv2{{t{At condition {0}, the type of {1} cannot be {2}.}{{code{userCount &amp;&amp; (userCount === 0)}}}{{code{userCount &amp;&amp; (userCount === 0)}}}{any object}}}}</description>
<line>87</line>
</event>
<event>
<tag>dead_error_condition</tag>
<description>{CovLStrv2{{t{The condition {0} cannot be true.}{{code{userCount &amp;&amp; (userCount === 0)}}}}}}</description>
<line>87</line>
</event>
<event>
<main>true</main>
<tag>dead_error_begin</tag>
<description>{CovLStrv2{{t{Execution cannot reach this statement: {0}.}{{code{req.session.needsSetup = true;}}}}}}</description>
<line>88</line>
</event>
<extra>userCount</extra>
<subcategory>none</subcategory>
</error>
